05SkNihKr/meritve/CSV1/SDS00008.csv

Record Length,Analog:7000
Sample Interval,CH:0.0000002000000
Vertical Units,CH1:V CH2:V CH4:V,,,
Vertical Scale,CH1:+5.000000E-03 CH2:+2.000000E-03 CH4:+1.000000E+00,,,
Vertical Offset,CH1:+0.000000E+00 CH2:+0.000000E+00 CH4:+0.000000E+00,,,
Horizontal Units,us,,,
Horizontal Scale,100.0000000000,,,
Model Number,SDS1104X-E,,,
Serial Number,SDSMMEBX4R2044,,,
Software Version,8.1.6.1.35R2,,,
Source,CH1,CH2,CH4
Second,Volt,Volt,Volt
-3.180000E-04,-6.000000E-04,+0.000000E+00,-2.000000E+00
-3.178000E-04,-4.000000E-04,-3.200000E-04,-2.000000E+00
-3.176000E-04,-4.000000E-04,-2.400000E-04,-2.040000E+00
-3.174000E-04,-4.000000E-04,-1.600000E-04,-2.040000E+00
-3.172000E-04,-2.000000E-04,-2.400000E-04,-2.040000E+00
-3.170000E-04,-4.000000E-04,-4.000000E-04,-2.040000E+00
-3.168000E-04,-4.000000E-04,-1.600000E-04,-2.000000E+00
-3.166000E-04,-6.000000E-04,-8.000000E-05,-2.000000E+00
-3.164000E-04,-4.000000E-04,-2.400000E-04,-2.040000E+00
-3.162000E-04,-6.000000E-04,-8.000000E-05,-2.000000E+00
-3.160000E-04,-4.000000E-04,-1.600000E-04,-2.040000E+00
-3.158000E-04,-4.000000E-04,-4.000000E-04,-2.000000E+00
-3.156000E-04,-6.000000E-04,-2.400000E-04,-2.000000E+00
-3.154000E-04,-6.000000E-04,-2.400000E-04,-2.000000E+00
-3.152000E-04,-6.000000E-04,-2.400000E-04,-2.000000E+00
-3.150000E-04,-6.000000E-04,+0.000000E+00,-2.000000E+00
-3.148000E-04,-4.000000E-04,-1.600000E-04,-2.000000E+00
-3.146000E-04,-6.000000E-04,-8.000000E-05,-2.000000E+00
-3.144000E-04,-4.000000E-04,-1.600000E-04,-2.000000E+00
-3.142000E-04,-4.000000E-04,-1.600000E-04,-2.000000E+00
-3.140000E-04,-6.000000E-04,-1.600000E-04,-2.000000E+00
-3.138000E-04,-6.000000E-04,-1.600000E-04,-2.000000E+00
-3.136000E-04,-6.000000E-04,-2.400000E-04,-2.000000E+00
-3.134000E-04,-6.000000E-04,+0.000000E+00,-2.000000E+00
-3.132000E-04,-4.000000E-04,-8.000000E-05,-2.000000E+00
-3.130000E-04,-4.000000E-04,-8.000000E-05,-2.000000E+00
-3.128000E-04,-4.000000E-04,-1.600000E-04,-2.040000E+00
-3.126000E-04,-4.000000E-04,-2.400000E-04,-2.040000E+00
-3.124000E-04,-6.000000E-04,+0.000000E+00,-2.000000E+00
-3.122000E-04,-4.000000E-04,-8.000000E-05,-2.000000E+00
-3.120000E-04,-4.000000E-04,-1.600000E-04,-2.000000E+00
-3.118000E-04,-4.000000E-04,-8.000000E-05,-2.040000E+00
-3.116000E-04,-4.000000E-04,-2.400000E-04,-2.040000E+00
-3.114000E-04,-4.000000E-04,-1.600000E-04,-2.040000E+00
-3.112000E-04,-6.000000E-04,-8.000000E-05,-2.040000E+00
-3.110000E-04,-6.000000E-04,-8.000000E-05,-2.000000E+00
-3.108000E-04,-4.000000E-04,-3.200000E-04,-2.000000E+00
-3.106000E-04,-4.000000E-04,-1.600000E-04,-2.040000E+00
-3.104000E-04,-4.000000E-04,-8.000000E-05,-2.000000E+00
-3.102000E-04,-4.000000E-04,-2.400000E-04,-2.040000E+00
-3.100000E-04,-4.000000E-04,-4.000000E-04,-2.040000E+00
-3.098000E-04,-4.000000E-04,-1.600000E-04,-2.000000E+00
-3.096000E-04,-4.000000E-04,-3.200000E-04,-2.040000E+00
-3.094000E-04,-4.000000E-04,-4.000000E-04,-2.000000E+00
-3.092000E-04,-6.000000E-04,+0.000000E+00,-2.040000E+00
-3.090000E-04,-6.000000E-04,-1.600000E-04,-2.000000E+00
-3.088000E-04,-4.000000E-04,-3.200000E-04,-2.000000E+00
-3.086000E-04,-4.000000E-04,-8.000000E-05,-2.000000E+00
-3.084000E-04,-4.000000E-04,-3.200000E-04,-2.040000E+00
-3.082000E-04,-4.000000E-04,-3.200000E-04,-2.000000E+00
-3.080000E-04,-6.000000E-04,-8.000000E-05,-2.000000E+00
-3.078000E-04,-4.000000E-04,-1.600000E-04,-2.000000E+00
-3.076000E-04,-4.000000E-04,-1.600000E-04,-2.040000E+00
-3.074000E-04,-4.000000E-04,-2.400000E-04,-2.000000E+00
-3.072000E-04,-4.000000E-04,-3.200000E-04,-2.000000E+00
-3.070000E-04,-6.000000E-04,-2.400000E-04,-2.000000E+00
-3.068000E-04,-4.000000E-04,-3.200000E-04,-2.000000E+00
-3.066000E-04,-6.000000E-04,-2.400000E-04,-2.000000E+00
-3.064000E-04,-4.000000E-04,-2.400000E-04,-2.040000E+00
-3.062000E-04,-6.000000E-04,-2.400000E-04,-2.000000E+00
-3.060000E-04,-4.000000E-04,-2.400000E-04,-2.040000E+00
-3.058000E-04,-4.000000E-04,-3.200000E-04,-2.000000E+00
-3.056000E-04,-4.000000E-04,-3.200000E-04,-2.000000E+00
-3.054000E-04,-6.000000E-04,-2.400000E-04,-2.000000E+00
-3.052000E-04,-4.000000E-04,-3.200000E-04,-2.000000E+00
-3.050000E-04,-6.000000E-04,-1.600000E-04,-2.000000E+00
-3.048000E-04,-6.000000E-04,-8.000000E-05,-2.000000E+00
-3.046000E-04,-4.000000E-04,-4.000000E-04,-2.000000E+00
-3.044000E-04,-4.000000E-04,-2.400000E-04,-2.000000E+00
-3.042000E-04,-4.000000E-04,-3.200000E-04,-2.000000E+00
-3.040000E-04,-6.000000E-04,-3.200000E-04,-2.040000E+00
-3.038000E-04,-6.000000E-04,-2.400000E-04,-2.000000E+00
-3.036000E-04,-6.000000E-04,-2.400000E-04,-2.000000E+00
-3.034000E-04,-6.000000E-04,-8.000000E-05,-2.000000E+00
-3.032000E-04,-4.000000E-04,-1.600000E-04,-2.040000E+00
-3.030000E-04,-4.000000E-04,-1.600000E-04,-2.040000E+00
-3.028000E-04,-4.000000E-04,-3.200000E-04,-2.000000E+00
-3.026000E-04,-4.000000E-04,-4.800000E-04,-2.000000E+00
-3.024000E-04,-6.000000E-04,-1.600000E-04,-2.040000E+00
-3.022000E-04,-6.000000E-04,-2.400000E-04,-2.000000E+00
-3.020000E-04,-6.000000E-04,-1.600000E-04,-2.000000E+00
-3.018000E-04,-2.000000E-04,-3.200000E-04,-2.000000E+00
-3.016000E-04,-4.000000E-04,-2.400000E-04,-2.000000E+00
-3.014000E-04,-4.000000E-04,-2.400000E-04,-2.000000E+00
-3.012000E-04,-6.000000E-04,-2.400000E-04,-2.040000E+00
-3.010000E-04,-4.000000E-04,-2.400000E-04,-2.000000E+00
-3.008000E-04,-6.000000E-04,-2.400000E-04,-2.000000E+00
-3.006000E-04,-4.000000E-04,-2.400000E-04,-2.000000E+00
-3.004000E-04,-6.000000E-04,-8.000000E-05,-2.000000E+00
-3.002000E-04,-4.000000E-04,-3.200000E-04,-2.040000E+00
-3.000000E-04,-6.000000E-04,-2.400000E-04,-2.000000E+00
-2.998000E-04,-4.000000E-04,-2.400000E-04,-2.000000E+00
-2.996000E-04,-6.000000E-04,-2.400000E-04,-2.040000E+00
-2.994000E-04,-6.000000E-04,-8.000000E-05,-2.000000E+00
-2.992000E-04,-4.000000E-04,-1.600000E-04,-2.040000E+00
-2.990000E-04,-4.000000E-04,-1.600000E-04,-2.040000E+00
-2.988000E-04,-4.000000E-04,-1.600000E-04,-2.000000E+00
-2.986000E-04,-4.000000E-04,-8.000000E-05,-2.000000E+00
-2.984000E-04,-4.000000E-04,-2.400000E-04,-2.000000E+00
-2.982000E-04,-6.000000E-04,-2.400000E-04,-2.040000E+00
-2.980000E-04,-6.000000E-04,-8.000000E-05,-2.040000E+00
-2.978000E-04,-6.000000E-04,+8.000000E-05,-2.040000E+00
-2.976000E-04,-2.000000E-04,-1.600000E-04,-2.040000E+00
-2.974000E-04,-4.000000E-04,-1.600000E-04,-2.000000E+00
-2.972000E-04,-4.000000E-04,-2.400000E-04,-2.000000E+00
-2.970000E-04,-6.000000E-04,-1.600000E-04,-2.040000E+00
-2.968000E-04,-4.000000E-04,-2.400000E-04,-2.000000E+00
-2.966000E-04,-6.000000E-04,-8.000000E-05,-2.040000E+00
-2.964000E-04,-4.000000E-04,-8.000000E-05,-2.040000E+00
-2.962000E-04,-6.000000E-04,-1.600000E-04,-2.000000E+00
-2.960000E-04,-4.000000E-04,-1.600000E-04,-2.040000E+00
-2.958000E-04,-4.000000E-04,-3.200000E-04,-2.000000E+00
-2.956000E-04,-4.000000E-04,-3.200000E-04,-2.000000E+00
-2.954000E-04,-6.000000E-04,-3.200000E-04,-2.040000E+00
-2.952000E-04,-6.000000E-04,-2.400000E-04,-2.000000E+00
-2.950000E-04,-6.000000E-04,-8.000000E-05,-2.000000E+00
-2.948000E-04,-4.000000E-04,-2.400000E-04,-2.040000E+00
-2.946000E-04,-4.000000E-04,-2.400000E-04,-2.000000E+00
-2.944000E-04,-4.000000E-04,-2.400000E-04,-2.040000E+00
-2.942000E-04,-4.000000E-04,-4.000000E-04,-2.000000E+00
-2.940000E-04,-6.000000E-04,-2.400000E-04,-2.000000E+00
-2.938000E-04,-6.000000E-04,-3.200000E-04,-2.000000E+00
-2.936000E-04,-6.000000E-04,-1.600000E-04,-2.000000E+00
-2.934000E-04,-4.000000E-04,-1.600000E-04,-2.000000E+00
-2.932000E-04,-4.000000E-04,-2.400000E-04,-2.040000E+00
-2.930000E-04,-4.000000E-04,-1.600000E-04,-2.000000E+00
-2.928000E-04,-4.000000E-04,-3.200000E-04,-2.040000E+00
-2.926000E-04,-4.000000E-04,-3.200000E-04,-2.040000E+00
-2.924000E-04,-6.000000E-04,-1.600000E-04,-2.040000E+00
-2.922000E-04,-4.000000E-04,-1.600000E-04,-2.000000E+00
-2.920000E-04,-4.000000E-04,-1.600000E-04,-2.000000E+00
-2.918000E-04,-4.000000E-04,-2.400000E-04,-2.000000E+00
-2.916000E-04,-4.000000E-04,-2.400000E-04,-2.000000E+00
-2.914000E-04,-2.000000E-04,-3.200000E-04,-2.000000E+00
-2.912000E-04,-6.000000E-04,-2.400000E-04,-2.000000E+00
-2.910000E-04,-6.000000E-04,-8.000000E-05,-2.000000E+00
-2.908000E-04,-6.000000E-04,-2.400000E-04,-2.040000E+00
-2.906000E-04,-4.000000E-04,-3.200000E-04,-2.000000E+00
-2.904000E-04,-4.000000E-04,-8.000000E-05,-2.000000E+00
-2.902000E-04,-4.000000E-04,-3.200000E-04,-2.040000E+00
-2.900000E-04,-4.000000E-04,-4.000000E-04,-2.000000E+00
-2.898000E-04,-4.000000E-04,-2.400000E-04,-2.040000E+00
-2.896000E-04,-6.000000E-04,-3.200000E-04,-2.000000E+00
-2.894000E-04,-6.000000E-04,-1.600000E-04,-2.040000E+00
-2.892000E-04,-6.000000E-04,-1.600000E-04,-2.000000E+00
-2.890000E-04,-6.000000E-04,-2.400000E-04,-2.000000E+00
-2.888000E-04,-4.000000E-04,-2.400000E-04,-2.000000E+00
-2.886000E-04,-4.000000E-04,-2.400000E-04,-2.040000E+00
-2.884000E-04,-4.000000E-04,-3.200000E-04,-2.040000E+00
-2.882000E-04,-6.000000E-04,-3.200000E-04,-2.000000E+00
-2.880000E-04,-6.000000E-04,-8.000000E-05,-2.000000E+00
-2.878000E-04,-6.000000E-04,-2.400000E-04,-2.040000E+00
-2.876000E-04,-4.000000E-04,-1.600000E-04,-2.000000E+00
-2.874000E-04,-6.000000E-04,-1.600000E-04,-2.000000E+00
-2.872000E-04,-4.000000E-04,-2.400000E-04,-2.000000E+00
-2.870000E-04,-4.000000E-04,-4.000000E-04,-2.000000E+00
-2.868000E-04,-6.000000E-04,-3.200000E-04,-2.000000E+00
-2.866000E-04,-6.000000E-04,-2.400000E-04,-2.000000E+00
-2.864000E-04,-6.000000E-04,-8.000000E-05,-2.000000E+00
-2.862000E-04,-6.000000E-04,-1.600000E-04,-2.000000E+00
-2.860000E-04,-4.000000E-04,-8.000000E-05,-2.000000E+00
-2.858000E-04,-2.000000E-04,-4.800000E-04,-2.000000E+00
-2.856000E-04,-4.000000E-04,-4.000000E-04,-2.040000E+00
-2.854000E-04,-6.000000E-04,-2.400000E-04,-2.000000E+00
-2.852000E-04,-6.000000E-04,-3.200000E-04,-2.000000E+00
-2.850000E-04,-6.000000E-04,-1.600000E-04,-2.000000E+00
-2.848000E-04,-4.000000E-04,-8.000000E-05,-2.000000E+00
-2.846000E-04,-2.000000E-04,-3.200000E-04,-2.000000E+00
-2.844000E-04,-4.000000E-04,-3.200000E-04,-2.040000E+00
-2.842000E-04,-4.000000E-04,-1.600000E-04,-2.000000E+00
-2.840000E-04,-4.000000E-04,-4.800000E-04,-2.000000E+00
-2.838000E-04,-6.000000E-04,-2.400000E-04,-2.000000E+00
-2.836000E-04,-6.000000E-04,-8.000000E-05,-2.040000E+00
-2.834000E-04,-4.000000E-04,+0.000000E+00,-2.040000E+00
-2.832000E-04,-4.000000E-04,-1.600000E-04,-2.040000E+00
-2.830000E-04,-2.000000E-04,-8.000000E-05,-2.000000E+00
-2.828000E-04,-4.000000E-04,-2.400000E-04,-2.000000E+00
-2.826000E-04,-4.000000E-04,-2.400000E-04,-2.000000E+00
-2.824000E-04,-6.000000E-04,-2.400000E-04,-2.040000E+00
-2.822000E-04,-4.000000E-04,-1.600000E-04,-2.000000E+00
-2.820000E-04,-6.000000E-04,-8.000000E-05,-2.000000E+00
-2.818000E-04,-2.000000E-04,-8.000000E-05,-2.040000E+00
-2.816000E-04,-2.000000E-04,-2.400000E-04,-2.000000E+00
-2.814000E-04,-4.000000E-04,-1.600000E-04,-2.040000E+00
-2.812000E-04,-6.000000E-04,-1.600000E-04,-2.040000E+00
-2.810000E-04,-4.000000E-04,-1.600000E-04,-2.040000E+00
-2.808000E-04,-8.000000E-04,+0.000000E+00,-2.000000E+00
-2.806000E-04,-4.000000E-04,+0.000000E+00,-2.000000E+00
-2.804000E-04,-4.000000E-04,+0.000000E+00,-2.040000E+00
-2.802000E-04,-2.000000E-04,-2.400000E-04,-2.000000E+00
-2.800000E-04,-4.000000E-04,-8.000000E-05,-2.040000E+00
-2.798000E-04,-6.000000E-04,-8.000000E-05,-2.000000E+00
-2.796000E-04,-4.000000E-04,-2.400000E-04,-2.000000E+00
-2.794000E-04,-6.000000E-04,-1.600000E-04,-2.040000E+00
-2.792000E-04,-4.000000E-04,-8.000000E-05,-2.040000E+00
-2.790000E-04,-6.000000E-04,-8.000000E-05,-2.000000E+00
-2.788000E-04,-4.000000E-04,-2.400000E-04,-2.000000E+00
-2.786000E-04,-6.000000E-04,-4.000000E-04,-2.000000E+00
-2.784000E-04,-6.000000E-04,-1.600000E-04,-2.000000E+00
-2.782000E-04,-6.000000E-04,-4.800000E-04,-2.000000E+00
-2.780000E-04,-6.000000E-04,-4.000000E-04,-2.000000E+00
-2.778000E-04,-8.000000E-04,-8.000000E-05,-2.000000E+00
-2.776000E-04,-2.000000E-04,-3.200000E-04,-2.040000E+00
-2.774000E-04,-6.000000E-04,-3.200000E-04,-2.040000E+00
-2.772000E-04,-4.000000E-04,-2.400000E-04,-2.000000E+00
-2.770000E-04,-4.000000E-04,-4.000000E-04,-2.000000E+00
-2.768000E-04,-6.000000E-04,-3.200000E-04,-2.000000E+00
-2.766000E-04,-6.000000E-04,-2.400000E-04,-2.000000E+00
-2.764000E-04,-6.000000E-04,-1.600000E-04,-2.000000E+00
-2.762000E-04,-4.000000E-04,-3.200000E-04,-2.040000E+00
-2.760000E-04,-4.000000E-04,-1.600000E-04,-2.000000E+00
-2.758000E-04,-2.000000E-04,-3.200000E-04,-2.000000E+00
-2.756000E-04,-4.000000E-04,-4.800000E-04,-2.040000E+00
-2.754000E-04,-4.000000E-04,-3.200000E-04,-2.000000E+00
-2.752000E-04,-6.000000E-04,-3.200000E-04,-2.000000E+00
-2.750000E-04,-6.000000E-04,-2.400000E-04,-2.000000E+00
-2.748000E-04,-6.000000E-04,-1.600000E-04,-2.000000E+00
-2.746000E-04,-4.000000E-04,-2.400000E-04,-2.040000E+00
-2.744000E-04,-4.000000E-04,-2.400000E-04,-2.040000E+00
-2.742000E-04,-2.000000E-04,-5.600000E-04,-2.000000E+00
-2.740000E-04,-6.000000E-04,-4.000000E-04,-2.040000E+00
-2.738000E-04,-4.000000E-04,-3.200000E-04,-2.000000E+00
-2.736000E-04,-6.000000E-04,-2.400000E-04,-2.000000E+00
-2.734000E-04,-4.000000E-04,-1.600000E-04,-2.000000E+00
-2.732000E-04,-4.000000E-04,-2.400000E-04,-2.000000E+00
-2.730000E-04,-4.000000E-04,-1.600000E-04,-2.000000E+00
-2.728000E-04,-4.000000E-04,-2.400000E-04,-2.000000E+00
-2.726000E-04,-4.000000E-04,-1.600000E-04,-2.000000E+00
-2.724000E-04,-6.000000E-04,-3.200000E-04,-2.000000E+00
-2.722000E-04,-4.000000E-04,-2.400000E-04,-2.040000E+00
-2.720000E-04,-6.000000E-04,-1.600000E-04,-2.040000E+00
-2.718000E-04,-4.000000E-04,-1.600000E-04,-2.000000E+00
-2.716000E-04,-4.000000E-04,-2.400000E-04,-2.000000E+00
-2.714000E-04,-4.000000E-04,-2.400000E-04,-2.000000E+00
-2.712000E-04,-6.000000E-04,-8.000000E-05,-2.040000E+00
-2.710000E-04,-4.000000E-04,-2.400000E-04,-2.000000E+00
-2.708000E-04,-4.000000E-04,-2.400000E-04,-2.040000E+00
-2.706000E-04,-6.000000E-04,+0.000000E+00,-2.000000E+00
-2.704000E-04,-4.000000E-04,-1.600000E-04,-2.000000E+00
-2.702000E-04,-4.000000E-04,-2.400000E-04,-2.000000E+00
-2.700000E-04,-4.000000E-04,-2.400000E-04,-2.040000E+00
-2.698000E-04,-6.000000E-04,-2.400000E-04,-2.000000E+00
-2.696000E-04,-4.000000E-04,-2.400000E-04,-2.000000E+00
-2.694000E-04,-6.000000E-04,-1.600000E-04,-2.000000E+00
-2.692000E-04,-4.000000E-04,-1.600000E-04,-2.040000E+00
-2.690000E-04,-6.000000E-04,-2.400000E-04,-2.000000E+00
-2.688000E-04,-4.000000E-04,+0.000000E+00,-2.040000E+00
-2.686000E-04,-4.000000E-04,-4.000000E-04,-2.000000E+00
-2.684000E-04,-4.000000E-04,-3.200000E-04,-2.000000E+00
-2.682000E-04,-6.000000E-04,-8.000000E-05,-2.040000E+00
-2.680000E-04,-4.000000E-04,-2.400000E-04,-2.040000E+00
-2.678000E-04,-6.000000E-04,-8.000000E-05,-2.000000E+00
-2.676000E-04,-4.000000E-04,-1.600000E-04,-2.000000E+00
-2.674000E-04,-4.000000E-04,-3.200000E-04,-2.000000E+00
-2.672000E-04,-4.000000E-04,-2.400000E-04,-2.000000E+00
-2.670000E-04,-4.000000E-04,-2.400000E-04,-2.000000E+00
-2.668000E-04,-4.000000E-04,-2.400000E-04,-2.040000E+00
-2.666000E-04,-4.000000E-04,-1.600000E-04,-2.000000E+00
-2.664000E-04,-6.000000E-04,-8.000000E-05,-2.000000E+00
-2.662000E-04,-4.000000E-04,+0.000000E+00,-2.000000E+00
-2.660000E-04,-4.000000E-04,-1.600000E-04,-2.000000E+00
-2.658000E-04,-2.000000E-04,-2.400000E-04,-2.000000E+00
-2.656000E-04,-4.000000E-04,-2.400000E-04,-2.000000E+00
-2.654000E-04,-4.000000E-04,-1.600000E-04,-2.000000E+00
-2.652000E-04,-6.000000E-04,-2.400000E-04,-2.000000E+00
-2.650000E-04,-4.000000E-04,-1.600000E-04,-2.040000E+00
-2.648000E-04,-6.000000E-04,-1.600000E-04,-2.000000E+00
-2.646000E-04,-4.000000E-04,+0.000000E+00,-2.000000E+00
-2.644000E-04,-4.000000E-04,-1.600000E-04,-2.000000E+00
-2.642000E-04,-2.000000E-04,-2.400000E-04,-2.000000E+00
-2.640000E-04,-6.000000E-04,-1.600000E-04,-2.040000E+00
-2.638000E-04,-6.000000E-04,-1.600000E-04,-2.000000E+00
-2.636000E-04,-6.000000E-04,-2.400000E-04,-2.000000E+00
-2.634000E-04,-4.000000E-04,-1.600000E-04,-2.000000E+00
-2.632000E-04,-4.000000E-04,-3.200000E-04,-2.000000E+00
-2.630000E-04,-4.000000E-04,-1.600000E-04,-2.000000E+00
-2.628000E-04,-4.000000E-04,-3.200000E-04,-2.000000E+00
-2.626000E-04,-6.000000E-04,-3.200000E-04,-2.000000E+00
-2.624000E-04,-6.000000E-04,-2.400000E-04,-2.000000E+00
-2.622000E-04,-4.000000E-04,-2.400000E-04,-2.000000E+00
-2.620000E-04,-6.000000E-04,-1.600000E-04,-2.000000E+00
-2.618000E-04,-6.000000E-04,-1.600000E-04,-2.000000E+00
-2.616000E-04,-4.000000E-04,-2.400000E-04,-2.040000E+00
-2.614000E-04,-4.000000E-04,-2.400000E-04,-2.000000E+00
-2.612000E-04,-4.000000E-04,-1.600000E-04,-2.000000E+00
-2.610000E-04,-6.000000E-04,-2.400000E-04,-2.000000E+00
-2.608000E-04,-4.000000E-04,-2.400000E-04,-2.040000E+00
-2.606000E-04,-6.000000E-04,-1.600000E-04,-2.040000E+00
-2.604000E-04,-2.000000E-04,-2.400000E-04,-2.000000E+00
-2.602000E-04,-4.000000E-04,-2.400000E-04,-2.000000E+00
-2.600000E-04,-4.000000E-04,-3.200000E-04,-2.040000E+00
-2.598000E-04,-6.000000E-04,-4.000000E-04,-2.000000E+00
-2.596000E-04,-4.000000E-04,-2.400000E-04,-2.000000E+00
-2.594000E-04,-6.000000E-04,-2.400000E-04,-2.000000E+00
-2.592000E-04,-4.000000E-04,-3.200000E-04,-2.040000E+00
-2.590000E-04,-6.000000E-04,-2.400000E-04,-2.000000E+00
-2.588000E-04,-4.000000E-04,-2.400000E-04,-2.000000E+00
-2.586000E-04,-4.000000E-04,-3.200000E-04,-2.040000E+00
-2.584000E-04,-4.000000E-04,-4.000000E-04,-2.040000E+00
-2.582000E-04,-6.000000E-04,-3.200000E-04,-2.000000E+00
-2.580000E-04,-6.000000E-04,-2.400000E-04,-2.040000E+00
-2.578000E-04,-6.000000E-04,-1.600000E-04,-2.040000E+00
-2.576000E-04,-4.000000E-04,-3.200000E-04,-2.000000E+00
-2.574000E-04,-4.000000E-04,-1.600000E-04,-2.000000E+00
-2.572000E-04,-4.000000E-04,-1.600000E-04,-2.040000E+00
-2.570000E-04,-4.000000E-04,-3.200000E-04,-2.040000E+00
-2.568000E-04,-4.000000E-04,-3.200000E-04,-2.000000E+00
-2.566000E-04,-6.000000E-04,-1.600000E-04,-2.040000E+00
-2.564000E-04,-6.000000E-04,-2.400000E-04,-2.000000E+00
-2.562000E-04,-4.000000E-04,-1.600000E-04,-2.000000E+00
-2.560000E-04,-4.000000E-04,-2.400000E-04,-2.000000E+00
-2.558000E-04,-4.000000E-04,-1.600000E-04,-2.040000E+00
-2.556000E-04,-4.000000E-04,-2.400000E-04,-2.000000E+00
-2.554000E-04,-4.000000E-04,-2.400000E-04,-2.000000E+00
-2.552000E-04,-6.000000E-04,-1.600000E-04,-2.000000E+00
-2.550000E-04,-4.000000E-04,-8.000000E-05,-2.000000E+00
-2.548000E-04,-6.000000E-04,+0.000000E+00,-2.000000E+00
-2.546000E-04,-4.000000E-04,-8.000000E-05,-2.000000E+00
-2.544000E-04,-4.000000E-04,-2.400000E-04,-2.000000E+00
-2.542000E-04,-4.000000E-04,-2.400000E-04,-2.000000E+00
-2.540000E-04,-4.000000E-04,-2.400000E-04,-2.000000E+00
-2.538000E-04,-4.000000E-04,-2.400000E-04,-2.040000E+00
-2.536000E-04,-6.000000E-04,-1.600000E-04,-2.000000E+00
-2.534000E-04,-6.000000E-04,+0.000000E+00,-2.000000E+00
-2.532000E-04,-6.000000E-04,-1.600000E-04,-2.000000E+00
-2.530000E-04,-4.000000E-04,-1.600000E-04,-2.000000E+00
-2.528000E-04,-6.000000E-04,+0.000000E+00,-2.000000E+00
-2.526000E-04,-4.000000E-04,-2.400000E-04,-2.000000E+00
-2.524000E-04,-4.000000E-04,-2.400000E-04,-2.040000E+00
-2.522000E-04,-6.000000E-04,-8.000000E-05,-2.000000E+00
-2.520000E-04,-4.000000E-04,-1.600000E-04,-2.040000E+00
-2.518000E-04,-4.000000E-04,-1.600000E-04,-2.000000E+00
-2.516000E-04,-4.000000E-04,-1.600000E-04,-2.000000E+00
-2.514000E-04,-4.000000E-04,-3.200000E-04,-2.000000E+00
-2.512000E-04,-4.000000E-04,-1.600000E-04,-2.000000E+00
-2.510000E-04,-6.000000E-04,-1.600000E-04,-2.000000E+00
-2.508000E-04,-4.000000E-04,-1.600000E-04,-2.040000E+00
-2.506000E-04,-6.000000E-04,-8.000000E-05,-2.000000E+00
-2.504000E-04,-4.000000E-04,-1.600000E-04,-2.000000E+00
-2.502000E-04,-4.000000E-04,-2.400000E-04,-2.000000E+00
-2.500000E-04,-4.000000E-04,-2.400000E-04,-2.000000E+00
-2.498000E-04,-6.000000E-04,-3.200000E-04,-2.000000E+00
-2.496000E-04,-4.000000E-04,-2.400000E-04,-2.000000E+00
-2.494000E-04,-6.000000E-04,-1.600000E-04,-2.000000E+00
-2.492000E-04,-6.000000E-04,-1.600000E-04,-2.040000E+00
-2.490000E-04,-6.000000E-04,-1.600000E-04,-2.000000E+00
-2.488000E-04,-4.000000E-04,+0.000000E+00,-2.000000E+00
-2.486000E-04,-2.000000E-04,-4.800000E-04,-2.000000E+00
-2.484000E-04,-4.000000E-04,-2.400000E-04,-2.000000E+00
